163510 805148 509
786055 836371 468
639979 506626 509
244992 809223 509
275004 604886 470
162054 616978 470
398329 908212 525
292872 239925 407
79937 842466 525
222248 936129 525
351245 570527 470
275365 142504 443
211078 983013 525
825713 686639 504
215047 664599 509
685681 766540 504
639356 285832 509
381341 793254 509
828964 288443 509
888671 497716 525
905165 729641 525
475902 904026 525
250125 691602 509
986613 734726 525
43609 390516 443
231984 778229 509
355006 104907 443
686004 188891 509
131403 473729 449
858218 389062 525
30272 588603 470
721698 139051 509
859006 753114 525
984461 628027 525
369428 330068 441
847871 306926 525
473685 747828 509
745281 542717 509
328749 770694 509
172502 257598 443
601129 23096 470
693106 737065 504
554613 122767 470
468380 638310 509
671655 540859 509
781321 342427 509
481124 888185 525
504959 559865 470
133631 940625 525
472838 308235 449
416801 572862 470
587750 796310 509
854780 785881 525
24086 891597 525
63136 350198 443
402258 235536 441
829503 194103 509
13751 56762 340
752875 220345 509
627427 155413 509
260058 468304 449
636073 315546 509
457261 441948 387
223623 971991 525
373977 301393 441
760074 353468 509
902764 519345 525
775666 181680 509
426780 828364 509
801496 913704 525
682995 693420 442
85494 567306 470
349005 192508 443
63317 560986 470
380968 569016 470
200532 715882 509
742562 717114 424
364914 600308 470
350590 199633 443
86627 45756 351
667624 793827 504
525828 992088 525
462770 429382 444
947579 625881 525
851351 370773 525
438600 400405 449
626008 874002 525
561138 430604 470
564321 222432 470
29728 51903 324
306786 607758 470
213966 808442 509
148451 488769 449
782615 888959 525
207373 836390 509
800299 923970 525
148121 747905 509
845637 175065 525
712001 200997 509
941110 268547 525
380769 31821 443
323388 478015 449
364779 115817 443
165740 220844 386
40977 413602 449
183037 918147 525
602877 72409 470
381738 948573 525
326569 991800 525
594867 15282 470
393158 520281 470
564381 159017 470
486198 200910 449
661650 792755 504
168848 804006 509
844115 56334 525
11340 785370 509
342139 918508 525
351897 301425 441
585484 18219 470
940149 638089 525
650533 473087 509
585839 149022 470
327834 553626 470
238202 730988 509
313034 758342 509
37794 993429 525
765099 84922 509
536480 820199 509
325698 890167 525
17808 292656 443
442313 807892 509
786933 379307 509
616858 397879 470
373723 795240 509
201651 131819 383
278600 457294 449
775978 73108 509
142142 374832 443
903833 580222 525
135812 15492 354
552796 469657 470
584801 949873 525
621543 391818 470
353952 511691 449
577240 763853 509
182719 743527 509
519028 775202 509
309694 131983 443
389998 795513 509
663453 270046 509
571961 647936 509
707143 406771 509
660379 233669 509
871764 108527 525
53055 493021 449
654556 820122 504
83686 707878 509
578348 860309 525
181402 848096 525
300603 751408 509
955536 312364 525
602086 254313 470
904096 72120 525
508697 395502 449
850780 364076 525
74381 591892 470
624830 490087 470
504755 548802 470
848477 329936 525
770452 321450 509
789536 228641 509
840899 833570 525
629179 964873 525
37067 662627 509
910694 446412 525
744038 344896 509
781506 445341 509
404073 474024 449
903272 771387 525
164740 34442 383
457637 651645 509
969141 382207 525
883412 284553 525
319461 14910 443
183840 640016 509
344100 495955 449
124992 501922 449
708957 381959 509
178114 151718 383
629469 167570 509
457205 559227 470
73505 99578 351
914110 656366 525
274313 48288 443
443112 411102 418
46375 653165 509
352560 406894 436
99296 847709 525
824880 39821 509
839021 209205 525
543591 507170 470
639416 641294 416
461608 692282 509
645281 637815 416
706903 445390 509
588191 322427 470
761701 238533 509
937690 661462 525
775071 597729 509
974878 456728 525
890805 482540 525
136560 323711 443
50917 858923 525
949474 201777 525
514863 846167 525
572379 774364 509
70380 679827 509
625171 874726 525
639580 771007 504
745006 611969 509
769036 591478 509
326262 230894 407
823630 520455 509
729282 798058 468
624920 515370 452
245288 54905 443
112068 303963 443
379075 901644 525
98677 745228 509
429523 47855 449
902998 472961 525
895759 987949 507
745533 284483 509
673084 41059 509
387993 81014 443
238668 883405 525
479565 74165 449
431769 684013 509
937048 325165 525
743424 171272 509
978785 37015 525
113043 992909 525
722982 907958 525
700142 230848 509
452259 252954 449
897226 932892 476
306524 871732 525
518223 710152 509
242820 504926 449
73346 106110 351
491897 633381 509
708582 106461 509
940565 743990 525
843579 536431 525
887136 172404 525
65307 5332 340
645251 965939 525
1529 162253 383
896941 610938 525
584366 652185 509
108657 425474 449
275150 575857 470
367089 600330 470
593069 223285 470
290042 255002 407
219650 980803 525
888411 7734 525
749665 353342 509
548937 509325 470
731303 787439 468
