767200 475657
267862 722078
394521 391658
458343 530446
666240 890364
496468 383407
308127 777714
138522 429845
238813 609311
435740 885402
551855 914445
827575 36853
684944 263743
113971 93048
236812 564079
118253 420436
248798 875619
60426 259587
171942 203551
818407 50568
389362 217430
911090 518262
150566 974011
885951 360408
448623 719987
644480 522563
95557 735055
12543 534190
726565 310688
791821 486636
84663 325314
362375 932500
421309 802536
635339 172394
985028 168288
222244 485770
323868 664195
709689 337659
719502 803979
348599 538182
286146 265465
294651 835371
888220 315222
908295 931015
958943 842277
751647 938098
427407 970753
632599 445656
844626 898434
283919 496464
947962 928736
140751 897931
474159 352577
608981 819943
22430 202751
92165 204598
458410 633788
734931 289669
603615 686162
159541 948849
74610 286785
665765 572437
366626 893127
701681 569918
310272 839478
795211 762898
729992 245641
263820 545517
645749 369236
965136 672437
989830 47355
539859 181085
386426 779050
51936 872824
585514 389462
283203 622729
671348 359791
940337 21141
522450 486854
342265 481472
480417 33728
217436 341982
988393 104672
23532 470339
999351 859719
177209 705619
535481 434847
805580 54163
31304 550616
301049 549534
870664 862110
753733 566175
520823 340161
416490 802057
847323 600136
46475 94116
201480 110383
254678 303636
643783 635379
672667 678572
490245 970934
252168 891529
981727 53474
284743 364908
835170 916408
169920 818747
902753 576057
798792 318561
443215 246177
172675 359035
312145 382699
103925 183300
569242 726257
847027 21601
781747 671980
345815 611426
79254 743217
73265 107174
927051 308639
913172 786697
867405 230564
278215 443808
331040 888053
253406 290513
787883 4211
295230 1026
461509 203018
153371 423432
593609 270769
988391 535021
648631 873043
978307 899916
130838 8804
784183 861522
354054 5567
770102 438791
16394 403043
673557 856330
898982 164945
960857 855426
485817 41178
30804 707566
406530 983815
233179 698058
137193 516289
571446 691875
924526 332183
271862 204938
551 378384
603561 671878
822157 389161
641952 866291
755998 918016
466098 201300
727725 866832
922395 975334
822618 568335
74979 825680
786997 517549
448567 918354
207022 828711
335453 317281
939818 710092
704585 122073
580611 295361
476967 384531
482194 351889
37532 305035
607250 375188
343794 768171
549141 208205
244882 875643
280807 827461
628007 449575
836859 892232
105466 536192
421371 17082
807611 140195
622634 382538
527779 323355
343101 256515
286108 481186
200301 817567
559195 23993
780347 586881
384188 229417
653916 393190
261941 71247
740586 948127
32916 341596
21607 780838
324450 231505
775826 6814
704928 68563
206743 764861
66198 876725
967128 846078
716814 251998
455418 627463
260058 240629
28249 286112
201881 904717
498814 76928
863533 900486
724760 797600
521836 632846
623423 790056
397737 313319
258330 539025
201275 893628
21160 641833
529518 144317
488411 83885
4500 582827
562739 117909
189566 479187
920225 44039
394991 477170
757731 122828
195684 602238
810413 591459
444779 156153
843120 647504
830579 545923
158464 986893
755732 527695
466430 807620
99588 895079
953648 729963
406959 576579
193639 849658
8274 66739
643072 414813
557303 541115
298955 334359
197948 181289
715469 389673
210852 967743
261718 647550
747202 222224
916222 212762
720278 154604
545951 238999
789467 39445
311131 371084
443064 323733
699527 92507
433980 797922
984190 14299
329195 325641
65516 427184
